{
    "cadena": "Jairo",
    "numero": "35",
    "booleano": "true",
    "arreglo": ["correr", "programar","cocinar"],
    "objeto":{
        "twitter": "@ghoul98",
        "email": "jairobejamin98@gmail.com"
    },
    "nulo": null
}