{
  "santos": [
    {
      "id": 1,
      "nombre": "Seiya",
      "constelacion": "Pegaso"
    },
    {
      "id": 2,
      "nombre": "Shiryu",
      "constelacion": "Hyoga"
    },
    {
      "id": 3,
      "nombre": "Hyouga",
      "constelacion": "Cisne"
    },
    {
      "id": 4,
      "nombre": "Shun",
      "constelacion": "Andromeda"
    },
    {
      "id": 5,
      "nombre": "Ikki",
      "constelacion": "Fenix"
    },
    {
      "nombre": "Shaca",
      "constelacion": "Leo",
      "id": 6
    }
  ],
  "dioses": [
    {
      "id": 1,
      "nombre": "Athena",
      "de": "Tiera"
    },
    {
      "id": 2,
      "nombre": "Poseidon",
      "de": "Mar"
    },
    {
      "id": 3,
      "nombre": "Hades",
      "de": "Inframundo"
    },
    {
      "id": 4,
      "nombre": "Zeus",
      "de": "Cielo"
    },
    {
      "id": 5,
      "nombre": "Áres",
      "de": "Infierno"
    }
  ]
}